{
    "photos": {
        "page": 1,
        "pages": 48093,
        "perpage": 5,
        "total": "240464",
        "photo": [
                  {
                  "id": "21619543780",
                  "owner": "29304822@N00",
                  "secret": "9263e389bc",
                  "server": "5730",
                  "farm": 6,
                  "title": "FabLearn 2015",
                  "ispublic": 1,
                  "isfriend": 0,
                  "isfamily": 0
                  },
                  {
                  "id": "21186490303",
                  "owner": "29304822@N00",
                  "secret": "36911636ff",
                  "server": "5687",
                  "farm": 6,
                  "title": "FabLearn 2015",
                  "ispublic": 1,
                  "isfriend": 0,
                  "isfamily": 0
                  },
                  {
                  "id": "21186489623",
                  "owner": "29304822@N00",
                  "secret": "281c5805cd",
                  "server": "568",
                  "farm": 1,
                  "title": "FabLearn 2015",
                  "ispublic": 1,
                  "isfriend": 0,
                  "isfamily": 0
                  },
                  {
                  "id": "21619705068",
                  "owner": "29304822@N00",
                  "secret": "e8f888fcd7",
                  "server": "695",
                  "farm": 1,
                  "title": "FabLearn 2015",
                  "ispublic": 1,
                  "isfriend": 0,
                  "isfamily": 0
                  },
                  {
                  "id": "21795803032",
                  "owner": "29304822@N00",
                  "secret": "3f00f5e9ca",
                  "server": "5763",
                  "farm": 6,
                  "title": "FabLearn 2015",
                  "ispublic": 1,
                  "isfriend": 0,
                  "isfamily": 0
                  }
                  ]
    },
    "stat": "ok"
}
